PWD /Users/leejaemin/Desktop/Class_Human_centered
INPUT /usr/local/texlive/2014/texmf.cnf
INPUT /usr/local/texlive/2014/texmf-dist/web2c/texmf.cnf
INPUT /usr/local/texlive/2014/texmf-var/web2c/pdftex/pdflatex.fmt
INPUT /Users/leejaemin/Desktop/Class_Human_centered/safe_navigation.py
OUTPUT Output/safe_navigation.log
OUTPUT Output/safe_navigation.pdf
INPUT /usr/local/texlive/2014/texmf-var/fonts/map/pdftex/updmap/pdftex.map
